…
Here again, looking at these double brackets ([[) we see that we are dealing with a list with each item being a vector of films.

# The list-columns, as they are called, are one of the most powerful features of the {tidyverse}: they kind of let you create "multi-dimensional" tibble. But this only become interesting if they let you "come back" to a normal "flat" tibble…which is what the unnest() function from {tidyr} is used for!

Let's say that I want to calculate the number of characters that have been in each movie. For that I need to be able to use group_by() on a per-film basis. How can I get a column that will contains only one film? unnest() to the rescue!

library(dplyr)
library(tidyr)
starwars %>%
  select(name, species, films) %>%
  unnest(films)
  
  
# A tibble: 173 x 3
   name           species films                  
   <chr>          <chr>   <chr>                  
 1 Luke Skywalker Human   Revenge of the Sith    
 2 Luke Skywalker Human   Return of the Jedi     
 3 Luke Skywalker Human   The Empire Strikes Back
 4 Luke Skywalker Human   A New Hope             
 5 Luke Skywalker Human   The Force Awakens      
 6 C-3PO          Droid   Attack of the Clones   
 7 C-3PO          Droid   The Phantom Menace     
 8 C-3PO          Droid   Revenge of the Sith    
 9 C-3PO          Droid   Return of the Jedi     
10 C-3PO          Droid   The Empire Strikes Back
# ... with 163 more rows
…
